PSY-504-Quarto - Lab: Poisson Regression
…
data_pos = data_pos %>%
  mutate(age_recode = age - mean(age, na.rm=TRUE),
         sex_recode = as.factor(sex),
         reliten_recode = as.factor(reliten),
         polviews_recode = as.factor(polviews),
         wrkhome_recode = as.factor(wrkhome))

Missingness

Code

data_pos %>%
  dplyr::select(reliten, reliten_recode)

# A tibble: 2,044 × 2
   reliten reliten_recode
     <dbl> <fct>         
 1       1 1             
 2       4 4             
 3       1 1             
 4       1 1             
 5       1 1             
 6       4 4             
 7       3 3             
 8       1 1             
 9       1 1             
10       1 1             
# ℹ 2,034 more rows
…
